<?xml version="1.0" encoding="UTF-8" standalone="no"?>
<svg xmlns:xlink="http://www.w3.org/1999/xlink" height="35.4px" width="39.3px" xmlns="http://www.w3.org/2000/svg">
  <g transform="matrix(1.0, 0.0, 0.0, 1.0, 19.6, 34.3)">
    <path d="M4.3 -20.3 L1.6 -30.15 6.95 -26.55 5.25 -20.6 4.85 -19.2 4.3 -20.3" fill="url(#gradient0)" fill-rule="evenodd" stroke="none"/>
    <path d="M5.25 -20.6 L6.95 -26.55 1.6 -30.15 4.3 -20.3 2.45 -19.35 0.0 -28.55 -1.05 -30.15 -2.3 -29.15 -2.65 -28.9 -2.05 -31.0 0.75 -33.3 8.5 -27.15 6.1 -19.85 5.9 -19.6 5.25 -20.6 M10.95 -19.6 L12.15 -22.2 12.05 -23.05 14.2 -24.25 18.7 -17.0 12.75 -11.55 14.65 -14.6 11.6 -13.95 10.9 -14.45 16.35 -16.8 12.9 -22.8 11.25 -16.65 10.85 -19.15 10.95 -19.6 M9.5 -6.35 L14.05 -5.7 12.75 -2.95 11.65 -3.0 Q12.3 -4.15 11.95 -4.65 11.35 -5.65 9.8 -5.95 L9.95 -2.75 8.45 -4.05 8.45 -4.6 8.45 -4.7 8.45 -4.65 9.5 -6.35 M-7.7 -12.65 L-7.7 -15.1 -14.5 -15.55 -14.5 -16.6 -7.25 -16.2 -6.95 -15.3 -7.7 -12.65" fill="#ffffff" fill-rule="evenodd" stroke="none"/>
    <path d="M4.3 -20.3 L4.85 -19.2 5.25 -20.6 5.9 -19.6 Q5.25 -18.8 4.9 -17.65 L4.85 -17.6 3.1 -16.75 -5.3 -22.3 2.65 -16.5 -0.6 -7.4 -1.1 -18.2 -3.05 -19.4 -6.25 -21.65 -5.95 -16.3 -2.1 -3.6 -2.45 -2.7 -4.15 -7.85 Q-4.3 -9.05 -5.2 -12.35 L-5.85 -14.8 Q-6.35 -16.55 -6.8 -17.05 L-7.85 -24.9 -2.05 -31.0 -2.65 -28.9 -4.8 -27.0 -6.95 -23.7 2.25 -18.95 2.45 -19.35 4.3 -20.3 M12.15 -22.2 L11.0 -21.65 11.0 -22.25 10.9 -21.6 Q10.15 -21.3 9.4 -20.95 L9.55 -21.4 8.95 -20.75 7.0 -19.85 7.75 -16.9 7.8 -16.75 7.85 -16.6 6.7 -18.3 8.85 -13.65 0.7 -1.4 -0.05 0.05 2.5 -0.65 0.5 0.1 -0.6 0.1 0.75 -2.35 -1.05 0.1 -1.4 0.1 -2.0 -1.35 -1.25 -4.1 -1.2 -3.55 -0.9 -0.5 1.15 -2.9 7.55 -15.25 5.8 -17.95 6.75 -19.95 12.05 -23.05 12.15 -22.2 M10.85 -19.15 L11.25 -16.65 10.9 -14.45 11.6 -13.95 9.4 -13.1 7.35 -10.25 9.35 -14.5 8.0 -16.35 9.2 -14.9 9.7 -15.9 10.85 -19.15 M12.75 -2.95 L9.95 0.1 9.65 0.1 5.7 0.1 6.9 -0.7 7.85 -1.3 7.2 -1.0 7.55 -1.4 6.6 -1.65 3.5 -0.25 5.4 -1.75 8.45 -4.05 9.95 -2.75 10.0 -1.85 Q10.85 -1.95 11.65 -3.0 L12.75 -2.95 M-7.7 -12.65 L-6.95 -15.3 -5.9 -12.0 -5.4 -10.4 Q-5.65 -8.0 -8.3 -7.25 L-7.3 -3.05 -9.05 -6.9 -6.85 -12.85 -9.3 -7.5 -10.35 -9.6 -8.65 -9.05 -7.7 -12.65 M-14.5 -16.6 L-14.5 -15.55 -13.6 -13.55 -7.7 0.1 -11.7 -6.45 -13.4 -6.15 -16.35 -5.45 -8.65 0.1 -10.9 0.1 -18.6 -6.15 -17.3 -9.4 -17.4 -7.25 -13.85 -7.3 -13.8 -7.3 -12.75 -7.5 -11.7 -7.75 -13.4 -11.8 -14.9 -13.95 -15.1 -14.15 -15.35 -14.45 -14.5 -16.6" fill="#ffe7b5" fill-rule="evenodd" stroke="none"/>
    <path d="M-2.65 -28.9 L-2.3 -29.15 -0.55 -28.05 0.15 -20.1 -1.45 -24.15 -4.8 -27.0 -2.65 -28.9 M0.0 -28.55 L2.45 -19.35 2.25 -18.95 0.0 -28.55 M11.0 -21.65 L10.95 -19.6 10.85 -19.15 9.7 -15.9 10.9 -21.6 11.0 -22.25 11.0 -21.65 M8.95 -20.75 L9.55 -21.4 9.4 -20.95 7.8 -16.75 7.75 -16.9 8.95 -20.75 M3.4 -12.4 L5.95 -15.65 -1.1 -3.35 -0.25 -6.05 3.4 -12.4 M-5.95 -16.3 L-6.25 -21.65 -3.05 -19.4 -1.3 -5.9 -1.85 -4.5 -5.95 -16.3 M-16.45 -14.25 L-15.9 -14.65 -15.1 -14.15 -14.9 -13.95 -12.75 -7.5 -13.8 -7.3 -13.85 -7.3 Q-15.15 -7.3 -16.2 -8.4 -16.85 -9.1 -17.1 -9.95 L-17.25 -11.05 -16.45 -14.25 M-13.4 -6.15 L-11.7 -6.45 -8.6 0.1 -8.65 0.1 -13.4 -6.15" fill="#824e28" fill-rule="evenodd" stroke="none"/>
    <path d="M-2.3 -29.15 L-1.05 -30.15 0.0 -28.55 2.25 -18.95 -6.95 -23.7 -4.8 -27.0 -1.45 -24.15 0.15 -20.1 -0.55 -28.05 -2.3 -29.15 M12.15 -22.2 L10.95 -19.6 11.0 -21.65 12.15 -22.2 M7.75 -16.9 L7.0 -19.85 8.95 -20.75 7.75 -16.9 M9.4 -20.95 Q10.15 -21.3 10.9 -21.6 L9.7 -15.9 9.2 -14.9 8.0 -16.35 7.85 -16.6 7.8 -16.75 9.4 -20.95 M3.4 -12.4 L4.95 -16.3 5.8 -17.95 7.55 -15.25 1.15 -2.9 -0.9 -0.5 -1.2 -3.55 -1.2 -4.15 -0.25 -6.05 -1.1 -3.35 5.95 -15.65 3.4 -12.4 M5.7 0.1 L5.55 0.1 6.9 -0.7 5.7 0.1 M7.2 -1.0 L4.85 0.1 4.25 0.1 6.6 -1.65 7.55 -1.4 7.2 -1.0 M-2.1 -3.6 L-5.95 -16.3 -1.85 -4.5 -2.1 -3.6 M-3.05 -19.4 L-1.1 -18.2 -0.6 -7.4 -1.3 -5.9 -3.05 -19.4 M-16.45 -14.25 L-16.1 -15.2 -15.35 -14.45 -15.1 -14.15 -15.9 -14.65 -16.45 -14.25 M-14.9 -13.95 L-13.4 -11.8 -11.7 -7.75 -12.75 -7.5 -14.9 -13.95 M-13.85 -7.3 L-17.4 -7.25 -17.3 -9.4 -17.25 -11.05 -17.1 -9.95 Q-16.85 -9.1 -16.2 -8.4 -15.15 -7.3 -13.85 -7.3 M-8.65 0.1 L-16.35 -5.45 -13.4 -6.15 -8.65 0.1 M-11.7 -6.45 L-7.7 0.1 -8.6 0.1 -11.7 -6.45" fill="#ff9f00" fill-rule="evenodd" stroke="none"/>
    <path d="M11.25 -16.65 L12.9 -22.8 16.35 -16.8 10.9 -14.45 11.25 -16.65" fill="url(#gradient1)" fill-rule="evenodd" stroke="none"/>
    <path d="M11.6 -13.95 L14.65 -14.6 12.75 -11.55 8.5 -7.65 Q7.35 -7.4 2.55 -2.6 L2.6 -2.6 7.8 -6.6 9.5 -6.35 8.45 -4.65 7.9 -4.05 8.45 -4.6 8.45 -4.05 5.4 -1.75 2.5 -0.65 -0.05 0.05 0.7 -1.4 7.35 -10.25 9.4 -13.1 11.6 -13.95" fill="url(#gradient2)" fill-rule="evenodd" stroke="none"/>
    <path d="M0.75 -34.3 L1.4 -34.05 9.15 -27.9 9.45 -27.4 9.45 -26.8 7.75 -21.7 13.7 -25.1 14.45 -25.2 15.05 -24.75 19.55 -17.5 19.7 -16.85 19.4 -16.25 9.65 -7.35 14.2 -6.7 14.75 -6.4 15.05 -5.85 14.95 -5.25 13.65 -2.5 13.5 -2.25 10.65 0.75 10.0 1.1 9.7 1.1 9.65 1.1 -10.9 1.1 -11.55 0.9 -19.2 -5.35 -19.55 -5.9 -19.5 -6.5 -18.3 -9.6 -18.25 -11.1 -18.2 -11.25 -17.45 -14.45 -17.4 -14.6 -17.0 -15.55 -16.6 -16.05 -15.95 -16.2 -15.75 -16.15 -15.45 -17.0 -15.05 -17.45 -14.45 -17.6 -7.85 -17.25 -8.85 -24.75 -8.8 -25.2 -8.55 -25.55 -2.8 -31.7 -2.7 -31.8 0.15 -34.05 0.75 -34.3 M5.9 -19.6 L6.1 -19.85 8.5 -27.15 0.75 -33.3 -2.05 -31.0 -7.85 -24.9 -6.8 -17.05 Q-6.35 -16.55 -5.85 -14.8 L-5.2 -12.35 Q-4.3 -9.05 -4.15 -7.85 L-4.1 -7.4 -3.95 -7.1 -4.0 -7.05 Q-4.55 -7.6 -5.05 -9.5 L-5.4 -10.4 -5.9 -12.0 -6.95 -15.3 -7.25 -16.2 -14.5 -16.6 -15.35 -14.45 -16.1 -15.2 -16.45 -14.25 -17.25 -11.05 -17.3 -9.4 -18.6 -6.15 -10.9 0.1 -8.65 0.1 -8.6 0.1 -7.7 0.1 -13.6 -13.55 -10.35 -9.6 -9.3 -7.5 -6.85 -12.85 -9.05 -6.9 -7.3 -3.05 -6.0 -0.5 -2.45 -2.7 -2.1 -3.6 -1.85 -4.5 -1.3 -5.9 -0.6 -7.4 2.65 -16.5 -5.3 -22.3 3.1 -16.75 4.85 -17.6 4.9 -17.65 Q5.25 -18.8 5.9 -19.6 M12.75 -11.55 L18.7 -17.0 14.2 -24.25 12.05 -23.05 6.75 -19.95 5.8 -17.95 4.95 -16.3 3.4 -12.4 -0.25 -6.05 -1.2 -4.15 -1.25 -4.1 -2.0 -1.35 -1.4 0.1 -1.05 0.1 0.75 -2.35 -0.6 0.1 0.5 0.1 2.5 -0.65 5.4 -1.75 3.5 -0.25 6.6 -1.65 4.25 0.1 4.85 0.1 7.2 -1.0 7.85 -1.3 6.9 -0.7 5.55 0.1 5.7 0.1 9.65 0.1 9.95 0.1 12.75 -2.95 14.05 -5.7 9.5 -6.35 7.8 -6.6 2.6 -2.6 2.55 -2.6 Q7.35 -7.4 8.5 -7.65 L12.75 -11.55 M7.85 -16.6 L8.0 -16.35 9.35 -14.5 7.35 -10.25 0.7 -1.4 8.85 -13.65 6.7 -18.3 7.85 -16.6" fill="#643e00" fill-rule="evenodd" stroke="none"/>
    <path d="M8.45 -4.6 L7.9 -4.05 8.45 -4.65 8.45 -4.7 8.45 -4.6" fill="#00618a" fill-rule="evenodd" stroke="none"/>
    <path d="M9.95 -2.75 L9.8 -5.95 Q11.35 -5.65 11.95 -4.65 12.3 -4.15 11.65 -3.0 10.85 -1.95 10.0 -1.85 L9.95 -2.75" fill="url(#gradient3)" fill-rule="evenodd" stroke="none"/>
    <path d="M-14.5 -15.55 L-7.7 -15.1 -7.7 -12.65 -8.65 -9.05 -10.35 -9.6 -13.6 -13.55 -14.5 -15.55" fill="url(#gradient4)" fill-rule="evenodd" stroke="none"/>
    <path d="M-4.15 -7.85 L-2.45 -2.7 -6.0 -0.5 -7.3 -3.05 -8.3 -7.25 Q-5.65 -8.0 -5.4 -10.4 L-5.05 -9.5 Q-4.55 -7.6 -4.0 -7.05 L-3.95 -7.1 -4.1 -7.4 -4.15 -7.85" fill="url(#gradient5)" fill-rule="evenodd" stroke="none"/>
    <path d="M-1.2 -3.55 L-1.25 -4.1 -1.2 -4.15 -1.2 -3.55" fill="#333399" fill-opacity="0.22352941" fill-rule="evenodd" stroke="none"/>
  </g>
  <defs>
    <linearGradient gradientTransform="matrix(-0.0031, 0.001, -0.0021, -0.0063, 5.15, -24.2)" gradientUnits="userSpaceOnUse" id="gradient0" spreadMethod="pad" x1="-819.2" x2="819.2">
      <stop offset="0.0" stop-color="#ffffff"/>
      <stop offset="1.0" stop-color="#f9ac51"/>
    </linearGradient>
    <linearGradient gradientTransform="matrix(-0.0026, 0.0023, -0.0034, -0.0039, 13.05, -17.95)" gradientUnits="userSpaceOnUse" id="gradient1" spreadMethod="pad" x1="-819.2" x2="819.2">
      <stop offset="0.0" stop-color="#ffffff"/>
      <stop offset="1.0" stop-color="#f9ac51"/>
    </linearGradient>
    <linearGradient gradientTransform="matrix(-0.008, 0.004, -0.004, -0.008, 7.3, -7.2)" gradientUnits="userSpaceOnUse" id="gradient2" spreadMethod="pad" x1="-819.2" x2="819.2">
      <stop offset="0.0" stop-color="#ffffff"/>
      <stop offset="1.0" stop-color="#f9ac51"/>
    </linearGradient>
    <linearGradient gradientTransform="matrix(-0.0018, 0.0017, -0.0021, -0.0022, 10.85, -3.45)" gradientUnits="userSpaceOnUse" id="gradient3" spreadMethod="pad" x1="-819.2" x2="819.2">
      <stop offset="0.0" stop-color="#ffffff"/>
      <stop offset="1.0" stop-color="#f9ac51"/>
    </linearGradient>
    <linearGradient gradientTransform="matrix(-0.0026, 0.0021, -0.0027, -0.0033, -10.05, -13.3)" gradientUnits="userSpaceOnUse" id="gradient4" spreadMethod="pad" x1="-819.2" x2="819.2">
      <stop offset="0.0" stop-color="#ffffff"/>
      <stop offset="1.0" stop-color="#f9ac51"/>
    </linearGradient>
    <linearGradient gradientTransform="matrix(-0.0037, 0.0014, -0.0031, -0.0078, -6.2, -6.75)" gradientUnits="userSpaceOnUse" id="gradient5" spreadMethod="pad" x1="-819.2" x2="819.2">
      <stop offset="0.0" stop-color="#ffffff"/>
      <stop offset="1.0" stop-color="#f9ac51"/>
    </linearGradient>
  </defs>
</svg>
