<?xml version="1.0" encoding="UTF-8" standalone="no"?>
<svg xmlns:xlink="http://www.w3.org/1999/xlink" height="29.5px" width="28.3px" xmlns="http://www.w3.org/2000/svg">
  <g transform="matrix(1.0, 0.0, 0.0, 1.0, 13.9, 28.9)">
    <use height="21.75" transform="matrix(1.0, 0.0, 0.0, 1.0, -13.9, -21.8)" width="28.0" xlink:href="#shape0"/>
  </g>
  <defs>
    <g id="shape0" transform="matrix(1.0, 0.0, 0.0, 1.0, 13.9, 21.8)">
      <path d="M-1.1 -12.0 L-3.3 -12.4 -5.8 -11.45 -6.7 -10.65 -7.1 -11.0 -1.0 -20.1 1.2 -20.1 1.3 -18.9 -3.3 -14.5 -4.3 -13.1 -4.15 -13.1 -1.0 -13.35 Q2.2 -13.4 4.65 -11.6 L5.25 -10.8 2.7 -11.25 1.75 -11.6 -1.1 -12.0 M6.05 -8.55 L6.15 -8.4 Q6.15 -7.5 5.55 -7.0 L5.0 -6.7 1.35 -5.85 -1.85 -6.0 Q-4.25 -6.55 -5.9 -8.3 L-4.5 -7.75 Q-3.05 -6.75 -1.2 -6.4 L0.65 -6.25 Q3.5 -6.55 5.9 -8.0 L6.05 -8.55 M-1.4 -18.1 L0.4 -19.6 -1.0 -20.1 -1.85 -18.3 -1.4 -18.1 M-12.2 -2.7 L-12.4 -3.5 -8.35 -8.15 -7.7 -7.65 -10.95 -3.1 -12.2 -2.7" fill="#fee89e" fill-rule="evenodd" stroke="none"/>
      <path d="M0.45 -21.75 L10.1 -5.4 10.1 -5.3 Q11.7 -2.1 8.35 -1.9 L-8.05 -1.35 -11.45 -1.35 Q-13.8 -1.35 -13.85 -2.25 L-1.3 -21.0 0.25 -21.75 0.45 -21.75 M2.7 -11.25 L5.25 -10.8 4.65 -11.6 Q2.2 -13.4 -1.0 -13.35 L-4.15 -13.1 -4.3 -13.1 -3.3 -14.5 1.3 -18.9 1.2 -20.1 -1.0 -20.1 -7.1 -11.0 -6.7 -10.65 -5.8 -11.45 -3.3 -12.4 -1.1 -12.0 -2.45 -11.7 Q-4.8 -10.95 -6.8 -9.8 L-7.95 -9.05 -5.9 -8.3 Q-4.25 -6.55 -1.85 -6.0 L1.35 -5.85 5.0 -6.7 Q2.65 -5.45 -0.05 -5.4 -3.5 -5.7 -6.35 -7.65 L-6.6 -7.4 Q-3.45 -5.2 -1.0 -4.5 5.1 -5.35 6.25 -7.3 L6.25 -7.45 5.55 -7.0 Q6.15 -7.5 6.15 -8.4 L6.05 -8.55 6.1 -8.6 4.65 -10.2 2.7 -11.25 M-12.2 -2.7 L-10.95 -3.1 -7.7 -7.65 -8.35 -8.15 -12.4 -3.5 -12.2 -2.7" fill="#ffcc00" fill-rule="evenodd" stroke="none"/>
      <path d="M2.7 -11.25 L4.65 -10.2 6.1 -8.6 3.2 -10.75 2.85 -10.9 1.85 -11.15 0.8 -11.05 1.15 -10.75 0.7 -9.5 -0.3 -9.25 -0.85 -9.8 -0.4 -11.3 -1.45 -11.45 -2.5 -11.25 -2.8 -11.2 -6.2 -9.1 -4.5 -7.75 -5.9 -8.3 -7.95 -9.05 -6.8 -9.8 Q-4.8 -10.95 -2.45 -11.7 L-1.1 -12.0 1.75 -11.6 2.7 -11.25" fill="#000000" fill-rule="evenodd" stroke="none"/>
      <path d="M6.1 -8.6 L6.05 -8.55 5.9 -8.0 Q3.5 -6.55 0.65 -6.25 L-1.2 -6.4 Q-3.05 -6.75 -4.5 -7.75 L-6.2 -9.1 -2.8 -11.2 -2.95 -10.55 -4.7 -9.65 -4.8 -9.6 Q-3.1 -7.35 -0.05 -7.2 2.25 -6.95 4.35 -8.25 L4.35 -8.85 3.7 -10.0 3.2 -10.15 3.2 -10.75 6.1 -8.6" fill="#dadada" fill-rule="evenodd" stroke="none"/>
      <path d="M-2.8 -11.2 L-2.5 -11.25 -1.45 -11.45 -0.4 -11.3 -0.85 -9.8 -0.3 -9.25 0.7 -9.5 1.15 -10.75 0.8 -11.05 1.85 -11.15 2.85 -10.9 3.2 -10.75 3.2 -10.15 Q2.8 -7.8 0.35 -7.6 -1.15 -7.6 -2.15 -8.3 -3.2 -9.2 -2.95 -10.55 L-2.8 -11.2" fill="#3399ff" fill-rule="evenodd" stroke="none"/>
      <path d="M3.2 -10.15 L3.7 -10.0 4.35 -8.85 4.35 -8.25 Q2.25 -6.95 -0.05 -7.2 -3.1 -7.35 -4.8 -9.6 L-4.7 -9.65 -2.95 -10.55 Q-3.2 -9.2 -2.15 -8.3 -1.15 -7.6 0.35 -7.6 2.8 -7.8 3.2 -10.15 M-1.4 -18.1 L-1.85 -18.3 -1.0 -20.1 0.4 -19.6 -1.4 -18.1" fill="#ffffff" fill-rule="evenodd" stroke="none"/>
      <path d="M0.45 -21.75 Q1.05 -21.7 1.5 -21.0 L13.8 -2.95 Q14.45 -1.5 13.65 -0.7 L12.65 -0.05 -8.05 -0.05 -11.8 -0.1 Q-13.4 -0.15 -13.6 -0.6 L-13.9 -1.5 -13.85 -2.25 Q-13.8 -1.35 -11.45 -1.35 L-8.05 -1.35 8.35 -1.9 Q11.7 -2.1 10.1 -5.3 L10.1 -5.4 0.45 -21.75 M5.55 -7.0 L6.25 -7.45 6.25 -7.3 Q5.1 -5.35 -1.0 -4.5 -3.45 -5.2 -6.6 -7.4 L-6.35 -7.65 Q-3.5 -5.7 -0.05 -5.4 2.65 -5.45 5.0 -6.7 L5.55 -7.0" fill="#b56f06" fill-rule="evenodd" stroke="none"/>
      <path d="M-0.45 -9.25 L-0.1 -9.55 Q0.4 -9.35 0.1 -8.95 L-0.1 -8.8 Q-0.65 -8.8 -0.45 -9.25 M-2.0 -10.0 L-2.05 -10.35 Q-2.0 -11.15 -1.15 -11.3 -0.6 -11.2 -0.8 -10.55 -1.05 -9.8 -1.85 -9.9 L-2.0 -10.0" fill="#ffffff" fill-rule="evenodd" stroke="none"/>
    </g>
  </defs>
</svg>
